2020.08.03 16:49:24.830006 [ 2 ] {} <Trace> ODBCRequestHandlerFactory-factory: Request URI: /ping
2020.08.03 16:49:24.831449 [ 2 ] {} <Trace> ODBCRequestHandlerFactory-factory: Request URI: /columns_info?connection_string=DSN%3Dpostgres&schema=analytics&table=shop&external_table_functions_use_nulls=true
2020.08.03 16:49:24.831727 [ 2 ] {} <Trace> ODBCColumnsInfoHandler: Request URI: /columns_info?connection_string=DSN%3Dpostgres&schema=analytics&table=shop&external_table_functions_use_nulls=true
2020.08.03 16:49:24.831837 [ 2 ] {} <Trace> ODBCColumnsInfoHandler: Will fetch info for table 'analytics.shop'
2020.08.03 16:49:24.831943 [ 2 ] {} <Trace> ODBCColumnsInfoHandler: Got connection str 'DSN=postgres'
2020.08.03 16:49:24.892806 [ 2 ] {} <Trace> ODBCColumnsInfoHandler: Inferring structure with query 'SELECT * FROM "analytics"."shop" WHERE 1 = 0'
2020.08.03 16:49:24.919133 [ 3 ] {} <Trace> ODBCRequestHandlerFactory-factory: Request URI: /ping
2020.08.03 16:49:24.920466 [ 2 ] {} <Trace> ODBCRequestHandlerFactory-factory: Request URI: /columns_info?connection_string=DSN%3Dpostgres&schema=analytics&table=shop&external_table_functions_use_nulls=true
2020.08.03 16:49:24.920633 [ 2 ] {} <Trace> ODBCColumnsInfoHandler: Request URI: /columns_info?connection_string=DSN%3Dpostgres&schema=analytics&table=shop&external_table_functions_use_nulls=true
2020.08.03 16:49:24.920713 [ 2 ] {} <Trace> ODBCColumnsInfoHandler: Will fetch info for table 'analytics.shop'
2020.08.03 16:49:24.920819 [ 2 ] {} <Trace> ODBCColumnsInfoHandler: Got connection str 'DSN=postgres'
2020.08.03 16:49:24.970782 [ 2 ] {} <Trace> ODBCColumnsInfoHandler: Inferring structure with query 'SELECT * FROM "analytics"."shop" WHERE 1 = 0'
2020.08.03 16:49:24.999456 [ 3 ] {} <Trace> ODBCRequestHandlerFactory-factory: Request URI: /ping
2020.08.03 16:49:25.000670 [ 2 ] {} <Trace> ODBCRequestHandlerFactory-factory: Request URI: /ping
2020.08.03 16:49:25.001622 [ 3 ] {} <Trace> ODBCRequestHandlerFactory-factory: Request URI: /identifier_quote?connection_string=DSN%3Dpostgres
2020.08.03 16:49:25.001793 [ 3 ] {} <Trace> IdentifierQuoteHandler: Request URI: /identifier_quote?connection_string=DSN%3Dpostgres
2020.08.03 16:49:25.032455 [ 2 ] {} <Trace> ODBCRequestHandlerFactory-factory: Request URI: /?connection_string=DSN%3Dpostgres&columns=columns%20format%20version%3A%201%0A25%20columns%3A%0A%60id%60%20Int64%0A%60event_id%60%20Int64%0A%60event_time%60%20DateTime%0A%60party_id%60%20String%0A%60shop_id%60%20String%0A%60category_id%60%20Nullable%28Int32%29%0A%60contract_id%60%20Nullable%28String%29%0A%60payout_tool_id%60%20Nullable%28String%29%0A%60payout_schedule_id%60%20Nullable%28Int32%29%0A%60created_at%60%20Nullable%28DateTime%29%0A%60blocking%60%20Nullable%28String%29%0A%60blocked_reason%60%20Nullable%28String%29%0A%60blocked_since%60%20Nullable%28DateTime%29%0A%60unblocked_reason%60%20Nullable%28String%29%0A%60unblocked_since%60%20Nullable%28DateTime%29%0A%60suspension%60%20Nullable%28String%29%0A%60suspension_active_since%60%20Nullable%28DateTime%29%0A%60suspension_suspended_since%60%20Nullable%28DateTime%29%0A%60details_name%60%20Nullable%28String%29%0A%60details_description%60%20Nullable%28String%29%0A%60location_url%60%20Nullable%28String%29%0A%60account_currency_code%60%20Nullable%28String%29%0A%60account_settlement%60%20Nullable%28String%29%0A%60account_guarantee%60%20Nullable%28String%29%0A%60account_payout%60%20Nullable%28String%29%0A&max_block_size=65536
2020.08.03 16:49:25.032709 [ 2 ] {} <Trace> ODBCHandler: Request URI: /?connection_string=DSN%3Dpostgres&columns=columns%20format%20version%3A%201%0A25%20columns%3A%0A%60id%60%20Int64%0A%60event_id%60%20Int64%0A%60event_time%60%20DateTime%0A%60party_id%60%20String%0A%60shop_id%60%20String%0A%60category_id%60%20Nullable%28Int32%29%0A%60contract_id%60%20Nullable%28String%29%0A%60payout_tool_id%60%20Nullable%28String%29%0A%60payout_schedule_id%60%20Nullable%28Int32%29%0A%60created_at%60%20Nullable%28DateTime%29%0A%60blocking%60%20Nullable%28String%29%0A%60blocked_reason%60%20Nullable%28String%29%0A%60blocked_since%60%20Nullable%28DateTime%29%0A%60unblocked_reason%60%20Nullable%28String%29%0A%60unblocked_since%60%20Nullable%28DateTime%29%0A%60suspension%60%20Nullable%28String%29%0A%60suspension_active_since%60%20Nullable%28DateTime%29%0A%60suspension_suspended_since%60%20Nullable%28DateTime%29%0A%60details_name%60%20Nullable%28String%29%0A%60details_description%60%20Nullable%28String%29%0A%60location_url%60%20Nullable%28String%29%0A%60account_currency_code%60%20Nullable%28String%29%0A%60account_settlement%60%20Nullable%28String%29%0A%60account_guarantee%60%20Nullable%28String%29%0A%60account_payout%60%20Nullable%28String%29%0A&max_block_size=65536
2020.08.03 16:49:25.033659 [ 2 ] {} <Trace> ODBCHandler: Query: SELECT "id", "event_id", "event_time", "party_id", "shop_id", "category_id", "contract_id", "payout_tool_id", "payout_schedule_id", "created_at", "blocking", "blocked_reason", "blocked_since", "unblocked_reason", "unblocked_since", "suspension", "suspension_active_since", "suspension_suspended_since", "details_name", "details_description", "location_url", "account_currency_code", "account_settlement", "account_guarantee", "account_payout" FROM "analytics"."shop"
2020.08.03 16:49:25.033764 [ 2 ] {} <Trace> ODBCHandler: Connection string: 'DSN=postgres'
2020.08.03 16:49:25.035747 [ 2 ] {} <Error> ODBCHandler: Poco::Exception. Code: 1000, e.code() = 0, e.displayText() = Not found: ODBC (version 19.17.6.36
