2020.08.03 17:56:45.251661 [ 2 ] {} <Trace> ODBCRequestHandlerFactory-factory: Request URI: /ping
2020.08.03 17:56:45.252995 [ 2 ] {} <Trace> ODBCRequestHandlerFactory-factory: Request URI: /columns_info?connection_string=DSN%3Dpostgres&schema=analytics&table=shop&external_table_functions_use_nulls=true
2020.08.03 17:56:45.253256 [ 2 ] {} <Trace> ODBCColumnsInfoHandler: Request URI: /columns_info?connection_string=DSN%3Dpostgres&schema=analytics&table=shop&external_table_functions_use_nulls=true
2020.08.03 17:56:45.253388 [ 2 ] {} <Trace> ODBCColumnsInfoHandler: Will fetch info for table 'analytics.shop'
2020.08.03 17:56:45.253488 [ 2 ] {} <Trace> ODBCColumnsInfoHandler: Got connection str 'DSN=postgres'
2020.08.03 17:56:45.309115 [ 2 ] {} <Trace> ODBCColumnsInfoHandler: Inferring structure with query 'SELECT * FROM "analytics"."shop" WHERE 1 = 0'
2020.08.03 17:56:45.342499 [ 3 ] {} <Trace> ODBCRequestHandlerFactory-factory: Request URI: /ping
2020.08.03 17:56:45.343761 [ 2 ] {} <Trace> ODBCRequestHandlerFactory-factory: Request URI: /columns_info?connection_string=DSN%3Dpostgres&schema=analytics&table=shop&external_table_functions_use_nulls=true
2020.08.03 17:56:45.343936 [ 2 ] {} <Trace> ODBCColumnsInfoHandler: Request URI: /columns_info?connection_string=DSN%3Dpostgres&schema=analytics&table=shop&external_table_functions_use_nulls=true
2020.08.03 17:56:45.344051 [ 2 ] {} <Trace> ODBCColumnsInfoHandler: Will fetch info for table 'analytics.shop'
2020.08.03 17:56:45.344189 [ 2 ] {} <Trace> ODBCColumnsInfoHandler: Got connection str 'DSN=postgres'
2020.08.03 17:56:45.384614 [ 2 ] {} <Trace> ODBCColumnsInfoHandler: Inferring structure with query 'SELECT * FROM "analytics"."shop" WHERE 1 = 0'
2020.08.03 17:56:45.409050 [ 3 ] {} <Trace> ODBCRequestHandlerFactory-factory: Request URI: /ping
2020.08.03 17:56:45.409993 [ 2 ] {} <Trace> ODBCRequestHandlerFactory-factory: Request URI: /ping
2020.08.03 17:56:45.410835 [ 3 ] {} <Trace> ODBCRequestHandlerFactory-factory: Request URI: /identifier_quote?connection_string=DSN%3Dpostgres
2020.08.03 17:56:45.410977 [ 3 ] {} <Trace> IdentifierQuoteHandler: Request URI: /identifier_quote?connection_string=DSN%3Dpostgres
2020.08.03 17:56:45.450206 [ 2 ] {} <Trace> ODBCRequestHandlerFactory-factory: Request URI: /?connection_string=DSN%3Dpostgres&columns=columns%20format%20version%3A%201%0A1%20columns%3A%0A%60event_time%60%20DateTime%0A&max_block_size=65536
2020.08.03 17:56:45.450436 [ 2 ] {} <Trace> ODBCHandler: Request URI: /?connection_string=DSN%3Dpostgres&columns=columns%20format%20version%3A%201%0A1%20columns%3A%0A%60event_time%60%20DateTime%0A&max_block_size=65536
2020.08.03 17:56:45.450656 [ 2 ] {} <Trace> ODBCHandler: Query: SELECT "event_time" FROM "analytics"."shop"
2020.08.03 17:56:45.450766 [ 2 ] {} <Trace> ODBCHandler: Connection string: 'DSN=postgres'
2020.08.03 17:56:45.452505 [ 2 ] {} <Error> ODBCHandler: Poco::Exception. Code: 1000, e.code() = 0, e.displayText() = Not found: ODBC (version 19.17.6.36
