2018.08.22 10:44:02.302030 [ 147 ] <Error> BaseDaemon: ########################################
2018.08.22 10:44:02.302061 [ 147 ] <Error> BaseDaemon: (from thread 24) Received signal Segmentation fault (11).
2018.08.22 10:44:02.302069 [ 147 ] <Error> BaseDaemon: Address: 0xc
2018.08.22 10:44:02.302076 [ 147 ] <Error> BaseDaemon: Access: read.
2018.08.22 10:44:02.302086 [ 147 ] <Error> BaseDaemon: Address not mapped to object.
2018.08.22 10:44:02.358637 [ 147 ] <Error> BaseDaemon: 0. /usr/bin/clickhouse-server(DB::AssociativeOperationImpl<DB::AndImpl, 3ul>::execute(std::vector<DB::ColumnVector<unsigned char> const*, std::allocator<DB::ColumnVector<unsigned char> const*> >&, DB::PODArray<unsigned char, 4096ul, Allocator<false>, 15ul>&)+0x63) [0x3231283]
2018.08.22 10:44:02.358656 [ 147 ] <Error> BaseDaemon: 1. /usr/bin/clickhouse-server(DB::FunctionAnyArityLogical<DB::AndImpl, DB::NameAnd>::executeImpl(DB::Block&, std::vector<unsigned long, std::allocator<unsigned long> > const&, unsigned long, unsigned long)+0x537) [0x3231e97]
2018.08.22 10:44:02.358668 [ 147 ] <Error> BaseDaemon: 2. /usr/bin/clickhouse-server(DB::IFunctionBase::execute(DB::Block&, std::vector<unsigned long, std::allocator<unsigned long> > const&, unsigned long, unsigned long)+0x53) [0x2fd7613]
2018.08.22 10:44:02.358692 [ 147 ] <Error> BaseDaemon: 3. /usr/bin/clickhouse-server(DB::ExpressionAction::execute(DB::Block&, std::unordered_map<std::__cxx11::basic_string<char, std::char_traits<char>, std::allocator<char> >, unsigned long, std::hash<std::__cxx11::basic_string<char, std::char_traits<char>, std::allocator<char> > >, std::equal_to<std::__cxx11::basic_string<char, std::char_traits<char>, std::allocator<char> > >, std::allocator<std::pair<std::__cxx11::basic_string<char, std::char_traits<char>, std::allocator<char> > const, unsigned long> > >&) const+0x4b6) [0x52e84a6]
2018.08.22 10:44:02.358716 [ 147 ] <Error> BaseDaemon: 4. /usr/bin/clickhouse-server(DB::ExpressionActions::execute(DB::Block&) const+0xe6) [0x52e98b6]
2018.08.22 10:44:02.358727 [ 147 ] <Error> BaseDaemon: 5. /usr/bin/clickhouse-server(DB::FilterBlockInputStream::FilterBlockInputStream(std::shared_ptr<DB::IBlockInputStream> const&, std::shared_ptr<DB::ExpressionActions> const&, std::__cxx11::basic_string<char, std::char_traits<char>, std::allocator<char> > const&)+0x702) [0x51e3312]
2018.08.22 10:44:02.358736 [ 147 ] <Error> BaseDaemon: 6. /usr/bin/clickhouse-server() [0x4e73aa9]
2018.08.22 10:44:02.358746 [ 147 ] <Error> BaseDaemon: 7. /usr/bin/clickhouse-server(DB::InterpreterSelectQuery::executeImpl(DB::InterpreterSelectQuery::Pipeline&, std::shared_ptr<DB::IBlockInputStream> const&, bool)+0x9e7) [0x4e7b847]
2018.08.22 10:44:02.358756 [ 147 ] <Error> BaseDaemon: 8. /usr/bin/clickhouse-server(DB::InterpreterSelectQuery::executeWithMultipleStreams()+0x4e) [0x4e7d46e]
2018.08.22 10:44:02.358765 [ 147 ] <Error> BaseDaemon: 9. /usr/bin/clickhouse-server(DB::InterpreterSelectWithUnionQuery::executeWithMultipleStreams()+0x6c) [0x4e8712c]
2018.08.22 10:44:02.358774 [ 147 ] <Error> BaseDaemon: 10. /usr/bin/clickhouse-server(DB::InterpreterSelectQuery::executeFetchColumns(DB::InterpreterSelectQuery::Pipeline&)+0x533) [0x4e77c63]
2018.08.22 10:44:02.358784 [ 147 ] <Error> BaseDaemon: 11. /usr/bin/clickhouse-server(DB::InterpreterSelectQuery::executeImpl(DB::InterpreterSelectQuery::Pipeline&, std::shared_ptr<DB::IBlockInputStream> const&, bool)+0x19c) [0x4e7affc]
2018.08.22 10:44:02.358792 [ 147 ] <Error> BaseDaemon: 12. /usr/bin/clickhouse-server(DB::InterpreterSelectQuery::executeWithMultipleStreams()+0x4e) [0x4e7d46e]
2018.08.22 10:44:02.358801 [ 147 ] <Error> BaseDaemon: 13. /usr/bin/clickhouse-server(DB::InterpreterSelectWithUnionQuery::executeWithMultipleStreams()+0x6c) [0x4e8712c]
2018.08.22 10:44:02.358814 [ 147 ] <Error> BaseDaemon: 14. /usr/bin/clickhouse-server(DB::InterpreterSelectWithUnionQuery::execute()+0x38) [0x4e873f8]
2018.08.22 10:44:02.358822 [ 147 ] <Error> BaseDaemon: 15. /usr/bin/clickhouse-server() [0x4ef544b]
2018.08.22 10:44:02.358834 [ 147 ] <Error> BaseDaemon: 16. /usr/bin/clickhouse-server(DB::executeQuery(DB::ReadBuffer&, DB::WriteBuffer&, bool, DB::Context&, std::function<void (std::__cxx11::basic_string<char, std::char_traits<char>, std::allocator<char> > const&)>)+0x116) [0x4ef65f6]
2018.08.22 10:44:02.358843 [ 147 ] <Error> BaseDaemon: 17. /usr/bin/clickhouse-server(DB::HTTPHandler::processQuery(Poco::Net::HTTPServerRequest&, HTMLForm&, Poco::Net::HTTPServerResponse&, DB::HTTPHandler::Output&)+0x3197) [0x2dbd7c7]
2018.08.22 10:44:02.358854 [ 147 ] <Error> BaseDaemon: 18. /usr/bin/clickhouse-server(DB::HTTPHandler::handleRequest(Poco::Net::HTTPServerRequest&, Poco::Net::HTTPServerResponse&)+0x248) [0x2dbf8d8]
2018.08.22 10:44:02.358863 [ 147 ] <Error> BaseDaemon: 19. /usr/bin/clickhouse-server(Poco::Net::HTTPServerConnection::run()+0x332) [0x58cc862]
2018.08.22 10:44:02.358871 [ 147 ] <Error> BaseDaemon: 20. /usr/bin/clickhouse-server(Poco::Net::TCPServerConnection::start()+0xf) [0x58c510f]
2018.08.22 10:44:02.358879 [ 147 ] <Error> BaseDaemon: 21. /usr/bin/clickhouse-server(Poco::Net::TCPServerDispatcher::run()+0x16a) [0x58c54ea]
2018.08.22 10:44:02.358888 [ 147 ] <Error> BaseDaemon: 22. /usr/bin/clickhouse-server(Poco::PooledThread::run()+0x77) [0x59668f7]
2018.08.22 10:44:02.358896 [ 147 ] <Error> BaseDaemon: 23. /usr/bin/clickhouse-server(Poco::ThreadImpl::runnableEntry(void*)+0x38) [0x59627b8]
2018.08.22 10:44:02.358904 [ 147 ] <Error> BaseDaemon: 24. /usr/bin/clickhouse-server() [0x930310f]
2018.08.22 10:44:02.358915 [ 147 ] <Error> BaseDaemon: 25. /lib/x86_64-linux-gnu/libpthread.so.0(+0x76ba) [0x7f74700ba6ba]
2018.08.22 10:49:02.357729 [ 230 ] <Error> BaseDaemon: ########################################
2018.08.22 10:49:02.357757 [ 230 ] <Error> BaseDaemon: (from thread 37) Received signal Segmentation fault (11).
2018.08.22 10:49:02.357765 [ 230 ] <Error> BaseDaemon: Address: 0x2
2018.08.22 10:49:02.357772 [ 230 ] <Error> BaseDaemon: Access: read.
2018.08.22 10:49:02.357785 [ 230 ] <Error> BaseDaemon: Address not mapped to object.
2018.08.22 10:49:02.414215 [ 230 ] <Error> BaseDaemon: 0. /usr/bin/clickhouse-server(DB::AssociativeOperationImpl<DB::AndImpl, 3ul>::execute(std::vector<DB::ColumnVector<unsigned char> const*, std::allocator<DB::ColumnVector<unsigned char> const*> >&, DB::PODArray<unsigned char, 4096ul, Allocator<false>, 15ul>&)+0x63) [0x3231283]
2018.08.22 10:49:02.414241 [ 230 ] <Error> BaseDaemon: 1. /usr/bin/clickhouse-server(DB::FunctionAnyArityLogical<DB::AndImpl, DB::NameAnd>::executeImpl(DB::Block&, std::vector<unsigned long, std::allocator<unsigned long> > const&, unsigned long, unsigned long)+0x537) [0x3231e97]
2018.08.22 10:49:02.414254 [ 230 ] <Error> BaseDaemon: 2. /usr/bin/clickhouse-server(DB::IFunctionBase::execute(DB::Block&, std::vector<unsigned long, std::allocator<unsigned long> > const&, unsigned long, unsigned long)+0x53) [0x2fd7613]
2018.08.22 10:49:02.414276 [ 230 ] <Error> BaseDaemon: 3. /usr/bin/clickhouse-server(DB::ExpressionAction::execute(DB::Block&, std::unordered_map<std::__cxx11::basic_string<char, std::char_traits<char>, std::allocator<char> >, unsigned long, std::hash<std::__cxx11::basic_string<char, std::char_traits<char>, std::allocator<char> > >, std::equal_to<std::__cxx11::basic_string<char, std::char_traits<char>, std::allocator<char> > >, std::allocator<std::pair<std::__cxx11::basic_string<char, std::char_traits<char>, std::allocator<char> > const, unsigned long> > >&) const+0x4b6) [0x52e84a6]
2018.08.22 10:49:02.414290 [ 230 ] <Error> BaseDaemon: 4. /usr/bin/clickhouse-server(DB::ExpressionActions::execute(DB::Block&) const+0xe6) [0x52e98b6]
2018.08.22 10:49:02.414302 [ 230 ] <Error> BaseDaemon: 5. /usr/bin/clickhouse-server(DB::FilterBlockInputStream::FilterBlockInputStream(std::shared_ptr<DB::IBlockInputStream> const&, std::shared_ptr<DB::ExpressionActions> const&, std::__cxx11::basic_string<char, std::char_traits<char>, std::allocator<char> > const&)+0x702) [0x51e3312]
2018.08.22 10:49:02.414310 [ 230 ] <Error> BaseDaemon: 6. /usr/bin/clickhouse-server() [0x4e73aa9]
2018.08.22 10:49:02.414321 [ 230 ] <Error> BaseDaemon: 7. /usr/bin/clickhouse-server(DB::InterpreterSelectQuery::executeImpl(DB::InterpreterSelectQuery::Pipeline&, std::shared_ptr<DB::IBlockInputStream> const&, bool)+0x9e7) [0x4e7b847]
2018.08.22 10:49:02.414330 [ 230 ] <Error> BaseDaemon: 8. /usr/bin/clickhouse-server(DB::InterpreterSelectQuery::executeWithMultipleStreams()+0x4e) [0x4e7d46e]
2018.08.22 10:49:02.414339 [ 230 ] <Error> BaseDaemon: 9. /usr/bin/clickhouse-server(DB::InterpreterSelectWithUnionQuery::executeWithMultipleStreams()+0x6c) [0x4e8712c]
2018.08.22 10:49:02.414349 [ 230 ] <Error> BaseDaemon: 10. /usr/bin/clickhouse-server(DB::InterpreterSelectQuery::executeFetchColumns(DB::InterpreterSelectQuery::Pipeline&)+0x533) [0x4e77c63]
2018.08.22 10:49:02.414358 [ 230 ] <Error> BaseDaemon: 11. /usr/bin/clickhouse-server(DB::InterpreterSelectQuery::executeImpl(DB::InterpreterSelectQuery::Pipeline&, std::shared_ptr<DB::IBlockInputStream> const&, bool)+0x19c) [0x4e7affc]
2018.08.22 10:49:02.414367 [ 230 ] <Error> BaseDaemon: 12. /usr/bin/clickhouse-server(DB::InterpreterSelectQuery::executeWithMultipleStreams()+0x4e) [0x4e7d46e]
2018.08.22 10:49:02.414375 [ 230 ] <Error> BaseDaemon: 13. /usr/bin/clickhouse-server(DB::InterpreterSelectWithUnionQuery::executeWithMultipleStreams()+0x6c) [0x4e8712c]
2018.08.22 10:49:02.414384 [ 230 ] <Error> BaseDaemon: 14. /usr/bin/clickhouse-server(DB::InterpreterSelectWithUnionQuery::execute()+0x38) [0x4e873f8]
2018.08.22 10:49:02.414397 [ 230 ] <Error> BaseDaemon: 15. /usr/bin/clickhouse-server() [0x4ef544b]
2018.08.22 10:49:02.414410 [ 230 ] <Error> BaseDaemon: 16. /usr/bin/clickhouse-server(DB::executeQuery(DB::ReadBuffer&, DB::WriteBuffer&, bool, DB::Context&, std::function<void (std::__cxx11::basic_string<char, std::char_traits<char>, std::allocator<char> > const&)>)+0x116) [0x4ef65f6]
2018.08.22 10:49:02.414419 [ 230 ] <Error> BaseDaemon: 17. /usr/bin/clickhouse-server(DB::HTTPHandler::processQuery(Poco::Net::HTTPServerRequest&, HTMLForm&, Poco::Net::HTTPServerResponse&, DB::HTTPHandler::Output&)+0x3197) [0x2dbd7c7]
2018.08.22 10:49:02.414431 [ 230 ] <Error> BaseDaemon: 18. /usr/bin/clickhouse-server(DB::HTTPHandler::handleRequest(Poco::Net::HTTPServerRequest&, Poco::Net::HTTPServerResponse&)+0x248) [0x2dbf8d8]
2018.08.22 10:49:02.414447 [ 230 ] <Error> BaseDaemon: 19. /usr/bin/clickhouse-server(Poco::Net::HTTPServerConnection::run()+0x332) [0x58cc862]
2018.08.22 10:49:02.414456 [ 230 ] <Error> BaseDaemon: 20. /usr/bin/clickhouse-server(Poco::Net::TCPServerConnection::start()+0xf) [0x58c510f]
2018.08.22 10:49:02.414465 [ 230 ] <Error> BaseDaemon: 21. /usr/bin/clickhouse-server(Poco::Net::TCPServerDispatcher::run()+0x16a) [0x58c54ea]
2018.08.22 10:49:02.414474 [ 230 ] <Error> BaseDaemon: 22. /usr/bin/clickhouse-server(Poco::PooledThread::run()+0x77) [0x59668f7]
2018.08.22 10:49:02.414482 [ 230 ] <Error> BaseDaemon: 23. /usr/bin/clickhouse-server(Poco::ThreadImpl::runnableEntry(void*)+0x38) [0x59627b8]
2018.08.22 10:49:02.414489 [ 230 ] <Error> BaseDaemon: 24. /usr/bin/clickhouse-server() [0x930310f]
2018.08.22 10:49:02.414497 [ 230 ] <Error> BaseDaemon: 25. /lib/x86_64-linux-gnu/libpthread.so.0(+0x76ba) [0x7f9378b266ba]
2018.08.22 10:54:02.430694 [ 272 ] <Error> BaseDaemon: ########################################
2018.08.22 10:54:02.430725 [ 272 ] <Error> BaseDaemon: (from thread 20) Received signal Segmentation fault (11).
2018.08.22 10:54:02.430734 [ 272 ] <Error> BaseDaemon: Address: 0x2
2018.08.22 10:54:02.430742 [ 272 ] <Error> BaseDaemon: Access: read.
2018.08.22 10:54:02.430751 [ 272 ] <Error> BaseDaemon: Address not mapped to object.
2018.08.22 10:54:02.487733 [ 272 ] <Error> BaseDaemon: 0. /usr/bin/clickhouse-server(DB::AssociativeOperationImpl<DB::AndImpl, 3ul>::execute(std::vector<DB::ColumnVector<unsigned char> const*, std::allocator<DB::ColumnVector<unsigned char> const*> >&, DB::PODArray<unsigned char, 4096ul, Allocator<false>, 15ul>&)+0x63) [0x3231283]
2018.08.22 10:54:02.487751 [ 272 ] <Error> BaseDaemon: 1. /usr/bin/clickhouse-server(DB::FunctionAnyArityLogical<DB::AndImpl, DB::NameAnd>::executeImpl(DB::Block&, std::vector<unsigned long, std::allocator<unsigned long> > const&, unsigned long, unsigned long)+0x537) [0x3231e97]
2018.08.22 10:54:02.487763 [ 272 ] <Error> BaseDaemon: 2. /usr/bin/clickhouse-server(DB::IFunctionBase::execute(DB::Block&, std::vector<unsigned long, std::allocator<unsigned long> > const&, unsigned long, unsigned long)+0x53) [0x2fd7613]
2018.08.22 10:54:02.487786 [ 272 ] <Error> BaseDaemon: 3. /usr/bin/clickhouse-server(DB::ExpressionAction::execute(DB::Block&, std::unordered_map<std::__cxx11::basic_string<char, std::char_traits<char>, std::allocator<char> >, unsigned long, std::hash<std::__cxx11::basic_string<char, std::char_traits<char>, std::allocator<char> > >, std::equal_to<std::__cxx11::basic_string<char, std::char_traits<char>, std::allocator<char> > >, std::allocator<std::pair<std::__cxx11::basic_string<char, std::char_traits<char>, std::allocator<char> > const, unsigned long> > >&) const+0x4b6) [0x52e84a6]
2018.08.22 10:54:02.487799 [ 272 ] <Error> BaseDaemon: 4. /usr/bin/clickhouse-server(DB::ExpressionActions::execute(DB::Block&) const+0xe6) [0x52e98b6]
2018.08.22 10:54:02.487812 [ 272 ] <Error> BaseDaemon: 5. /usr/bin/clickhouse-server(DB::FilterBlockInputStream::FilterBlockInputStream(std::shared_ptr<DB::IBlockInputStream> const&, std::shared_ptr<DB::ExpressionActions> const&, std::__cxx11::basic_string<char, std::char_traits<char>, std::allocator<char> > const&)+0x702) [0x51e3312]
2018.08.22 10:54:02.487832 [ 272 ] <Error> BaseDaemon: 6. /usr/bin/clickhouse-server() [0x4e73aa9]
2018.08.22 10:54:02.487842 [ 272 ] <Error> BaseDaemon: 7. /usr/bin/clickhouse-server(DB::InterpreterSelectQuery::executeImpl(DB::InterpreterSelectQuery::Pipeline&, std::shared_ptr<DB::IBlockInputStream> const&, bool)+0x9e7) [0x4e7b847]
2018.08.22 10:54:02.487852 [ 272 ] <Error> BaseDaemon: 8. /usr/bin/clickhouse-server(DB::InterpreterSelectQuery::executeWithMultipleStreams()+0x4e) [0x4e7d46e]
2018.08.22 10:54:02.487861 [ 272 ] <Error> BaseDaemon: 9. /usr/bin/clickhouse-server(DB::InterpreterSelectWithUnionQuery::executeWithMultipleStreams()+0x6c) [0x4e8712c]
2018.08.22 10:54:02.487870 [ 272 ] <Error> BaseDaemon: 10. /usr/bin/clickhouse-server(DB::InterpreterSelectQuery::executeFetchColumns(DB::InterpreterSelectQuery::Pipeline&)+0x533) [0x4e77c63]
2018.08.22 10:54:02.487880 [ 272 ] <Error> BaseDaemon: 11. /usr/bin/clickhouse-server(DB::InterpreterSelectQuery::executeImpl(DB::InterpreterSelectQuery::Pipeline&, std::shared_ptr<DB::IBlockInputStream> const&, bool)+0x19c) [0x4e7affc]
2018.08.22 10:54:02.487888 [ 272 ] <Error> BaseDaemon: 12. /usr/bin/clickhouse-server(DB::InterpreterSelectQuery::executeWithMultipleStreams()+0x4e) [0x4e7d46e]
2018.08.22 10:54:02.487901 [ 272 ] <Error> BaseDaemon: 13. /usr/bin/clickhouse-server(DB::InterpreterSelectWithUnionQuery::executeWithMultipleStreams()+0x6c) [0x4e8712c]
2018.08.22 10:54:02.487910 [ 272 ] <Error> BaseDaemon: 14. /usr/bin/clickhouse-server(DB::InterpreterSelectWithUnionQuery::execute()+0x38) [0x4e873f8]
2018.08.22 10:54:02.487918 [ 272 ] <Error> BaseDaemon: 15. /usr/bin/clickhouse-server() [0x4ef544b]
2018.08.22 10:54:02.487930 [ 272 ] <Error> BaseDaemon: 16. /usr/bin/clickhouse-server(DB::executeQuery(DB::ReadBuffer&, DB::WriteBuffer&, bool, DB::Context&, std::function<void (std::__cxx11::basic_string<char, std::char_traits<char>, std::allocator<char> > const&)>)+0x116) [0x4ef65f6]
2018.08.22 10:54:02.487940 [ 272 ] <Error> BaseDaemon: 17. /usr/bin/clickhouse-server(DB::HTTPHandler::processQuery(Poco::Net::HTTPServerRequest&, HTMLForm&, Poco::Net::HTTPServerResponse&, DB::HTTPHandler::Output&)+0x3197) [0x2dbd7c7]
2018.08.22 10:54:02.487952 [ 272 ] <Error> BaseDaemon: 18. /usr/bin/clickhouse-server(DB::HTTPHandler::handleRequest(Poco::Net::HTTPServerRequest&, Poco::Net::HTTPServerResponse&)+0x248) [0x2dbf8d8]
2018.08.22 10:54:02.487961 [ 272 ] <Error> BaseDaemon: 19. /usr/bin/clickhouse-server(Poco::Net::HTTPServerConnection::run()+0x332) [0x58cc862]
2018.08.22 10:54:02.487969 [ 272 ] <Error> BaseDaemon: 20. /usr/bin/clickhouse-server(Poco::Net::TCPServerConnection::start()+0xf) [0x58c510f]
2018.08.22 10:54:02.487977 [ 272 ] <Error> BaseDaemon: 21. /usr/bin/clickhouse-server(Poco::Net::TCPServerDispatcher::run()+0x16a) [0x58c54ea]
2018.08.22 10:54:02.487986 [ 272 ] <Error> BaseDaemon: 22. /usr/bin/clickhouse-server(Poco::PooledThread::run()+0x77) [0x59668f7]
2018.08.22 10:54:02.487994 [ 272 ] <Error> BaseDaemon: 23. /usr/bin/clickhouse-server(Poco::ThreadImpl::runnableEntry(void*)+0x38) [0x59627b8]
2018.08.22 10:54:02.488002 [ 272 ] <Error> BaseDaemon: 24. /usr/bin/clickhouse-server() [0x930310f]
2018.08.22 10:54:02.488010 [ 272 ] <Error> BaseDaemon: 25. /lib/x86_64-linux-gnu/libpthread.so.0(+0x76ba) [0x7ffb065486ba]
